{
  "name": "VBA",
  "description": "Project",
  "main": "Main.xaml",
  "dependencies": {},
  "excludedData": [
    "Private:*",
    "*password*"
  ],
  "toolVersion": "18.2",
  "projectVersion": "1.0.6837.30457",
  "packOptions": {},
  "runtimeOptions": {}
}