Action	System Date	Action Date	Description		
PAY	24/05/2017	24/05/2017	TOTAL $151.80		
RENW	24/05/2017	24/05/2017	"EFF 24/05/2017, EXP 23/05/2020, CLASS C, TYPE L, DL CARD"	5/24/2017	5/24/2020
SANC	6/2/2017	6/2/2017	"SPER SUSPENSION LIFTED, EFF 06/02/2017"		
SANC	1/7/2016	1/7/2016	"SPER SUSPENSION APPLIED, EFF 01/07/2016"		
SANC	21/10/2014	21/10/2014	"DEMERIT POINT SUSPENSION, EFF 21/10/2014, EXP 20/01/2015, PERIOD 3M, PROCMODE BTCH"		
PAY	6/1/2012	6/1/2012	TOTAL $108.30		
ADD	6/1/2012	6/1/2012	"EFF 06/01/2012, EXP 05/01/2015, CLASS C, TYPE L, DL CARD"	1/6/2012	1/6/2015
