Action	System Date	Action Date	Description		
PAY	19/07/2017	19/07/2017	TOTAL $157.10		
ADD	19/07/2017	19/07/2017	"EFF 19/07/2017, EXP 18/07/2020, CLASS C, TYPE L, DL CARD"	7/19/2017	7/19/2020
SURR	19/07/2017	19/07/2017	"INTER/OVR TRAVL, EFF 19/07/2017, JFHUGHE, BURLEIGHWA, 11:16, DL CARD CCBB533DD4 NOT RETURNED, REASON STOLEN"		
PAY	8/10/2014	8/10/2014	TOTAL $141.70		
ADD	8/10/2014	8/10/2014	"EFF 08/10/2014, EXP 07/10/2017, CLASS C, TYPE L, DL CARD"	10/8/2014	10/8/2017
