Action	System Date	Action Date	Description		
SANC	30/04/2018	30/04/2018	"SPER SUSPENSION LIFTED, EFF 30/04/2018"		
SANC	1/7/2017	1/7/2017	"SPER SUSPENSION APPLIED, EFF 01/07/2017"		
PAY	18/11/2016	18/11/2016	TOTAL $151.80		
ADD	18/11/2016	18/11/2016	"EFF 18/11/2016, EXP 17/11/2019, CLASS C, TYPE L, DL CARD"	11/18/2016	11/18/2019
