Action	System Date	Action Date	Description		
SHOW	14/09/2018	14/09/2018	"CANC MEDICAL GR, EFF 14/09/2018"		
PAY	21/02/2017	21/02/2017	TOTAL $151.80		
ADD	21/02/2017	21/02/2017	"EFF 21/02/2017, EXP 20/02/2020, CLASS C, TYPE L, DL CARD"	2/21/2017	2/21/2020
