Action	System Date	Action Date	Description		
PAY	28/10/2015	28/10/2015	TOTAL $146.65		
ADD	28/10/2015	28/10/2015	"EFF 28/10/2015, EXP 27/10/2018, CLASS C, TYPE L, DL CARD"	10/28/2015	10/28/2018
SANC	21/10/2015	21/10/2015	"SPER SUSPENSION LIFTED, EFF 21/10/2015"		
SANC	14/02/2015	14/02/2015	"SPER SUSPENSION APPLIED, EFF 14/02/2015"		
SANC	31/05/2014	31/05/2014	"SPER SUSPENSION LIFTED, EFF 31/05/2014"		
SANC	30/08/2013	30/08/2013	"SPER SUSPENSION APPLIED, EFF 30/08/2013"		
