Action	System Date	Action Date	Description		
SHOW	30/11/2017	30/11/2017	"NO FURTHER ACTN, EFF 30/11/2017"		
SHOW	16/11/2017	16/11/2017	"MODIFIED, EFF 16/11/2017"		
SHOW	12/10/2017	12/10/2017	"MODIFIED, EFF 12/10/2017"		
UPDT	12/10/2017	12/10/2017	SPECS IND CHANGED		
PAY	6/9/2017	6/9/2017	TOTAL $157.10		
ADD	6/9/2017	6/9/2017	"EFF 06/09/2017, EXP 05/09/2020, CLASS C, TYPE L, DL CARD"	9/6/2017	9/6/2020
