Action	System Date	Action Date	Description		
UPDT	20/09/2017	20/09/2017	SPECS IND CHANGED		
PAY	19/09/2017	19/09/2017	TOTAL $157.10		
ADD	19/09/2017	19/09/2017	"EFF 19/09/2017, EXP 18/09/2020, CLASS C, TYPE L, DL CARD"	9/19/2017	9/19/2020
